tests/interface.vcd
$date
	Fri May 16 15:06:43 2025
$end
$version
	Icarus Verilog
$end
$timescale
	1ps
$end
$scope module dut_inst $end
$var wire 1 ! RST_N $end
$var wire 3 " read_address [2:0] $end
$var wire 1 # read_en $end
$var wire 1 $ read_rdy $end
$var wire 3 % write_address [2:0] $end
$var wire 1 & write_data $end
$var wire 1 ' write_en $end
$var wire 1 ( write_rdy $end
$var wire 1 ) read_data $end
$var reg 1 * CLK $end
$scope module uut $end
$var wire 1 * CLK $end
$var wire 1 ! RST_N $end
$var wire 1 + \a_data$whas $end
$var wire 1 , \a_ff$CLR $end
$var wire 1 - \a_ff$DEQ $end
$var wire 1 . \a_ff$D_IN $end
$var wire 1 / \a_ff$ENQ $end
$var wire 1 0 \b_data$whas $end
$var wire 1 1 \b_ff$CLR $end
$var wire 1 2 \b_ff$DEQ $end
$var wire 1 3 \b_ff$D_IN $end
$var wire 1 4 \b_ff$ENQ $end
$var wire 1 5 \pwyff_deq$whas $end
$var wire 3 6 read_address [2:0] $end
$var wire 1 # read_en $end
$var wire 1 $ read_rdy $end
$var wire 3 7 write_address [2:0] $end
$var wire 1 & write_data $end
$var wire 1 ' write_en $end
$var wire 1 ( write_rdy $end
$var wire 1 8 \y_ff$CLR $end
$var wire 1 9 \y_ff$DEQ $end
$var wire 1 : \y_ff$D_IN $end
$var wire 1 ; \y_ff$ENQ $end
$var wire 1 < \y_ff$FULL_N $end
$var wire 1 = \y_ff$EMPTY_N $end
$var wire 1 > \y_ff$D_OUT $end
$var wire 1 ? \b_ff$FULL_N $end
$var wire 1 @ \b_ff$EMPTY_N $end
$var wire 1 A \b_ff$D_OUT $end
$var wire 1 B \a_ff$FULL_N $end
$var wire 1 C \a_ff$EMPTY_N $end
$var wire 1 D \a_ff$D_OUT $end
$var reg 1 ) read_data $end
$scope module a_ff $end
$var wire 1 * CLK $end
$var wire 1 , CLR $end
$var wire 1 - DEQ $end
$var wire 1 . D_IN $end
$var wire 1 C EMPTY_N $end
$var wire 1 / ENQ $end
$var wire 1 B FULL_N $end
$var wire 1 ! RST $end
$var wire 1 E d0d1 $end
$var wire 1 F d0di $end
$var wire 1 G d0h $end
$var wire 1 H d1di $end
$var wire 1 D D_OUT $end
$var reg 1 D data0_reg $end
$var reg 1 I data1_reg $end
$var reg 1 J empty_reg $end
$var reg 1 K full_reg $end
$scope begin error_checks $end
$var reg 1 L deqerror $end
$var reg 1 M enqerror $end
$upscope $end
$upscope $end
$scope module b_ff $end
$var wire 1 * CLK $end
$var wire 1 1 CLR $end
$var wire 1 2 DEQ $end
$var wire 1 3 D_IN $end
$var wire 1 @ EMPTY_N $end
$var wire 1 4 ENQ $end
$var wire 1 ! RST $end
$var wire 1 ? FULL_N $end
$var reg 1 A D_OUT $end
$var reg 1 N empty_reg $end
$scope begin error_checks $end
$var reg 1 O deqerror $end
$var reg 1 P enqerror $end
$upscope $end
$upscope $end
$scope module y_ff $end
$var wire 1 * CLK $end
$var wire 1 8 CLR $end
$var wire 1 9 DEQ $end
$var wire 1 : D_IN $end
$var wire 1 > D_OUT $end
$var wire 1 = EMPTY_N $end
$var wire 1 ; ENQ $end
$var wire 1 < FULL_N $end
$var wire 1 ! RST $end
$var wire 1 Q d0d1 $end
$var wire 1 R d0di $end
$var wire 1 S d0h $end
$var wire 1 T d1di $end
$var reg 1 U data0_reg $end
$var reg 1 V data1_reg $end
$var reg 1 W empty_reg $end
$var reg 1 X full_reg $end
$scope begin error_checks $end
$var reg 1 Y deqerror $end
$var reg 1 Z enqerror $end
$upscope $end
$upscope $end
$upscope $end
$upscope $end
$enddefinitions $end
#0
$dumpvars
0Z
0Y
1X
0W
0V
0U
0T
1S
0R
0Q
0P
0O
0N
0M
0L
1K
0J
0I
0H
xG
xF
0E
xD
0C
1B
0A
0@
1?
0>
0=
1<
0;
x:
09
08
bz 7
bz 6
x5
x4
z3
02
01
x0
x/
z.
0-
0,
x+
1*
0)
1(
z'
z&
bz %
1$
z#
bz "
1!
$end
#5000
0*
#10000
1*
#15000
0*
#20000
1*
#25000
0*
#30000
1*
#35000
0*
#40000
1*
#45000
0*
#50000
0!
1*
#55000
0*
#60000
1*
#65000
0*
#70000
1*
#75000
0*
#80000
1*
#85000
0*
#90000
1*
#95000
0*
#100000
0F
1G
0/
04
05
0+
00
b0 "
b0 6
0#
0.
03
0&
b0 %
b0 7
0'
1!
1*
#105000
0*
#110000
1*
#115000
0*
#120000
1*
#125000
0*
#130000
1*
#135000
0*
#140000
1*
#145000
0*
#150000
1*
#155000
0*
#160000
1*
#165000
0*
#170000
1*
#175000
0*
#180000
1*
#185000
0*
#190000
1*
#195000
0*
#200000
1*
#205000
0*
#210000
1*
#215000
0*
#220000
1*
#225000
0*
#230000
1*
#235000
0*
#240000
1*
#245000
0*
#250000
1*
#255000
0*
#260000
1*
#265000
0*
#270000
1*
#275000
0*
#280000
1*
#285000
0*
#290000
1*
#295000
0*
#300000
1*
#305000
0*
#310000
1*
#315000
0*
#320000
1*
#325000
0*
#330000
1*
#335000
0*
#340000
1*
#345000
0*
#350000
1*
#355000
0*
#360000
1*
#365000
0*
#370000
1*
#375000
0*
#380000
1*
#385000
0*
#390000
1*
#395000
0*
#400000
1*
#405000
0*
#410000
1*
#415000
0*
#420000
1*
#425000
0*
#430000
1*
#435000
0*
#440000
1*
#445000
0*
#450000
1*
#455000
0*
#460000
1*
#465000
0*
#470000
1*
#475000
0*
#480000
1*
#485000
0*
#490000
1*
#495000
0*
#500000
1*
#505000
0*
#510000
1*
#515000
0*
#520000
1*
#525000
0*
#530000
1*
#535000
0*
#540000
1*
#545000
0*
#550000
1*
#555000
0*
#560000
1*
#565000
0*
#570000
1*
#575000
0*
#580000
1*
#585000
0*
#590000
1*
#595000
0*
#600000
1*
#605000
0*
#610000
1*
#615000
0*
#620000
1*
#625000
0*
#630000
1*
#635000
0*
#640000
1*
#645000
0*
#650000
1*
#655000
0*
#660000
1*
#665000
0*
#670000
1*
#675000
0*
#680000
1*
#685000
0*
#690000
1*
#695000
0*
#700000
1*
#705000
0*
#710000
1*
#715000
0*
#720000
1*
#725000
0*
#730000
1*
#735000
0*
#740000
1*
#745000
0*
#750000
1*
#755000
0*
#760000
1*
#765000
0*
#770000
1*
#775000
0*
#780000
1*
#785000
0*
#790000
1*
#795000
0*
#800000
1*
#805000
0*
#810000
1*
#815000
0*
#820000
1*
#825000
0*
#830000
1*
#835000
0*
#840000
1*
#845000
0*
#850000
1*
#855000
0*
#860000
1*
#865000
0*
#870000
1*
#875000
0*
#880000
1*
#885000
0*
#890000
1*
#895000
0*
#900000
1*
#905000
0*
#910000
1*
#915000
0*
#920000
1*
#925000
0*
#930000
1*
#935000
0*
#940000
1*
#945000
0*
#950000
1*
#955000
0*
#960000
1*
#965000
0*
#970000
1*
#975000
0*
#980000
1*
#985000
0*
#990000
1*
#995000
0*
#1000000
1*
#1005000
0*
#1010000
1*
#1015000
0*
#1020000
1*
#1025000
0*
#1030000
1*
#1035000
0*
#1040000
1*
#1045000
0*
#1050000
1*
#1055000
0*
#1060000
1*
#1065000
0*
#1070000
1*
#1075000
0*
#1080000
1*
#1085000
0*
#1090000
1*
#1095000
0*
#1100000
1*
#1105000
0*
#1110000
1*
#1115000
0*
#1120000
1*
#1125000
0*
#1130000
1*
#1135000
0*
#1140000
1*
#1145000
0*
#1150000
1*
#1155000
0*
#1160000
1*
#1165000
0*
#1170000
1*
#1175000
0*
#1180000
1*
#1185000
0*
#1190000
1*
#1195000
0*
#1200000
1*
#1205000
0*
#1210000
1*
#1215000
0*
#1220000
1*
#1225000
0*
#1230000
1*
#1235000
0*
#1240000
1*
#1245000
0*
#1250000
1*
#1255000
0*
#1260000
1*
#1265000
0*
#1270000
1*
#1275000
0*
#1280000
1*
#1285000
0*
#1290000
1*
#1295000
0*
#1300000
1*
#1305000
0*
#1310000
1*
#1315000
0*
#1320000
1*
#1325000
0*
#1330000
1*
#1335000
0*
#1340000
1*
#1345000
0*
#1350000
1#
1*
#1355000
0*
#1360000
1*
#1365000
0#
0*
#1370000
1*
#1375000
0*
#1380000
1*
#1385000
0*
#1390000
1)
b1 "
b1 6
1#
1*
#1395000
0*
#1400000
1*
#1405000
0#
0*
#1410000
1*
#1415000
0*
#1420000
1*
#1425000
0*
#1430000
1*
#1435000
0*
#1440000
1*
#1445000
0*
#1450000
1*
#1455000
0*
#1460000
1*
#1465000
0*
#1470000
1*
#1475000
0*
#1480000
1*
#1485000
0*
#1490000
1*
#1495000
0*
#1500000
1*
#1505000
0*
#1510000
1*
#1515000
0*
#1520000
1*
#1525000
0*
#1530000
1*
#1535000
0*
#1540000
1*
#1545000
0*
#1550000
0)
b10 "
b10 6
1#
1*
#1555000
0*
#1560000
1*
#1565000
0#
0*
